[
    {
        "name": "超级MV",
        "url": "http://rihou.cc:55/lib/MV.txt&&&https://7914.kstore.space/图标/TV.png"
    },
    
{"name":"随机电影","url":"https://d.kstore.space/download/8209/港澳台终极版.txt&&&https://7914.kstore.space/图标/TV.png"},




 {"name":"运输车直播","url":"https://weixine.net/tv/ysclive.txt&&&https://7914.kstore.space/图标/TV.png"},

 

         {
        "name": "天天开心",
        "url": "http://rihou.cc:55/lib/kx2024.txt&&&https://7914.kstore.space/图标/TV.png"
    }
 

]